{
    "id": "3604cae6-7b51-4417-a159-60b7eec6a714",
    "name": "api_v1_actions_workspaces_4aefdef78922461faeb08c12de183f81_execution_collectlabelelements",
    "request": {
        "url": "/api/v1/actions/workspaces/4aefdef78922461faeb08c12de183f81/execution/collectLabelElements?offset=6&limit=2",
        "method": "POST",
        "headers": {
            "Accept": {
                "equalTo": "application/json, text/plain, */*"
            },
            "Content-Type": {
                "equalTo": "application/json",
                "caseInsensitive": true
            }
        },
        "bodyPatterns": [
            {
                "equalToJson": "{\"label\":\"attr.f_account.account\"}",
                "ignoreArrayOrder": false,
                "ignoreExtraElements": false
            }
        ]
    },
    "response": {
        "status": 200,
        "body": "{\"primaryLabel\":{\"id\":\"attr.f_account.account\",\"type\":\"label\"},\"elements\":[{\"title\":\"1-800 We Answer\",\"primaryTitle\":\"1-800 We Answer\"},{\"title\":\"1-888-OhioComp\",\"primaryTitle\":\"1-888-OhioComp\"}],\"paging\":{\"total\":4846,\"count\":2,\"offset\":6,\"next\":\"https://staging.anywhere.gooddata.com/api/v1/actions/workspaces/4aefdef78922461faeb08c12de183f81/execution/collectLabelElements?limit=2&offset=8\"}}",
        "headers": {
            "Date": "Fri, 24 Feb 2023 07:01:14 GMT",
            "Content-Type": "application/json",
            "Vary": [
                "Accept-Encoding",
                "Origin",
                "Access-Control-Request-Method",
                "Access-Control-Request-Headers"
            ],
            "X-GDC-TRACE-ID": "36dd5f8359b5a016",
            "Cache-Control": "no-cache, no-store, max-age=0, must-revalidate",
            "Pragma": "no-cache",
            "Expires": "0",
            "X-Content-Type-Options": "nosniff",
            "Strict-Transport-Security": "max-age=31536000; includeSubDomains",
            "X-XSS-Protection": "1 ; mode=block",
            "Referrer-Policy": "no-referrer",
            "Set-Cookie": "SPRING_REDIRECT_URI=; Path=/; Max-Age=0; Expires=Thu, 01 Jan 1970 00:00:00 GMT; Secure; HttpOnly; SameSite=None",
            "Permission-Policy": "geolocation 'none'; midi 'none'; sync-xhr 'none'; microphone 'none'; camera 'none'; magnetometer 'none'; gyroscope 'none'; fullscreen 'none'; payment 'none';"
        }
    },
    "uuid": "3604cae6-7b51-4417-a159-60b7eec6a714",
    "persistent": true,
    "insertionIndex": 5
}
